Analisis_propensiones
…
Carga de Librerías

if(!require('pacman')){install.packages('pacman')}

Loading required package: pacman

pacman::p_load(tidyverse,survey, tableone, ggpubr)

datos_imputados <- readRDS('Datos_imputados.rds') %>% 
  select(c(-NHC), identificador, everything())

datos_imputados

# A tibble: 371 × 50
   identificador Grup_IQ edat_IQ sexe_home   Pes Talla_m   IMC plaquetes_preIQ
           <int> <fct>     <dbl> <fct>     <dbl>   <dbl> <dbl>           <dbl>
 1             1 No IQ        70 home         87    1.71  29.8              67
 2             2 No IQ        79 dona         56    1.56  23.0             182
 3             3 No IQ        64 home         73    1.7   25.3              66
 4             4 No IQ        58 dona         50    1.57  20.3             152
 5             5 No IQ        54 home         99    1.73  33.1              60
 6             6 No IQ        70 home        125    1.8   38.6             102
 7             7 No IQ        74 dona         62    1.5   27.6             104
 8             8 No IQ        74 dona         71    1.48  32.4             104
 9             9 No IQ        74 dona         58    1.56  23.8             104
10            10 No IQ        82 dona         60    1.59  23.7              61
# ℹ 361 more rows
# ℹ 42 more variables: Alb_gL_preIQ <dbl>, BB_mgdL_preIQ <dbl>,
#   INR_preIQ <dbl>, AST_preIQ <dbl>, ALT_preIQ <dbl>, FA_preIQ <dbl>,
#   GGT_preIQ <dbl>, Urea_mgdL_preIQ <dbl>, Creat_mgdL_preIQ <dbl>,
#   MidaMelsa_mm <dbl>, FsC_Elastografia <dbl>, FsC <dbl>, hvpg <dbl>,
#   Charlson_Index <dbl>, Pughpunts_basal <dbl>, MELD_basal <dbl>,
#   Enol_Actiu <fct>, DIabetes <fct>, etiol_OH <fct>, TTO_Estatinas <fct>, …
…
datos_imputados_propensity_1 <- datos_imputados_transformados %>% 
  mutate(prediciones=predict(mod_propensity,datos_imputados_transformados,type="response") )

datos_imputados_propensity_1 <- datos_imputados_propensity_1 %>% 
  mutate(standarized_weights = case_when(
    Grup_IQ == 'Si IQ' ~ (177/(371))/ (  prediciones),
    Grup_IQ == 'No IQ' ~ (194/(371))/ (1-prediciones) 
  )) 

Revisión

datos_imputados_propensity_1

# A tibble: 371 × 21
   identificador Grup_IQ edat_IQ sexe_home   IMC etiol_OH Enol_Actiu
           <int> <fct>     <dbl> <fct>     <dbl> <fct>    <fct>     
 1             1 No IQ        70 home       29.8 no       no        
 2             2 No IQ        79 dona       23.0 no       no        
 3             3 No IQ        64 home       25.3 no       no        
 4             4 No IQ        58 dona       20.3 si       si        
 5             5 No IQ        54 home       33.1 si       si        
 6             6 No IQ        70 home       38.6 no       no        
 7             7 No IQ        74 dona       27.6 no       no        
 8             8 No IQ        74 dona       32.4 no       no        
 9             9 No IQ        74 dona       23.8 no       no        
10            10 No IQ        82 dona       23.7 no       no        
# ℹ 361 more rows
# ℹ 14 more variables: Charlson_Index <dbl>, plaquetes_preIQ <dbl>,
#   DIabetes <fct>, Pughpunts_basal <dbl>, colaterals_shunts <fct>,
#   MELD_basal <dbl>, Alb_gL_preIQ <dbl>, INR_preIQ <dbl>, BB_mgdL_preIQ <dbl>,
#   Creat_mgdL_preIQ <dbl>, HCC_prev <fct>, SignesIndirectes_HTP <fct>,
#   prediciones <dbl>, standarized_weights <dbl>
…
  data = datos_imputados_transformados, 
  family=binomial(link="logit") )

datos_imputados_propensity <- datos_imputados_transformados %>% 
  mutate(prediciones=predict(mod_propensity,datos_imputados_transformados,type="response") )

datos_imputados_propensity <- datos_imputados_propensity %>% 
  mutate(standarized_weights = case_when(
    Grup_IQ == 'Si IQ' ~ (177/(371))/ (  prediciones),
    Grup_IQ == 'No IQ' ~ (194/(371))/ (1-prediciones) 
  )) 

datos_imputados_propensity

# A tibble: 371 × 21
   identificador Grup_IQ edat_IQ sexe_home   IMC etiol_OH Enol_Actiu
           <int> <fct>     <dbl> <fct>     <dbl> <fct>    <fct>     
 1             1 No IQ        70 home       29.8 no       no        
 2             2 No IQ        79 dona       23.0 no       no        
 3             3 No IQ        64 home       25.3 no       no        
 4             4 No IQ        58 dona       20.3 si       si        
 5             5 No IQ        54 home       33.1 si       si        
 6             6 No IQ        70 home       38.6 no       no        
 7             7 No IQ        74 dona       27.6 no       no        
 8             8 No IQ        74 dona       32.4 no       no        
 9             9 No IQ        74 dona       23.8 no       no        
10            10 No IQ        82 dona       23.7 no       no        
# ℹ 361 more rows
# ℹ 14 more variables: Charlson_Index <dbl>, plaquetes_preIQ <dbl>,
#   DIabetes <fct>, Pughpunts_basal <dbl>, colaterals_shunts <fct>,
#   MELD_basal <dbl>, Alb_gL_preIQ <dbl>, INR_preIQ <dbl>, BB_mgdL_preIQ <dbl>,
#   Creat_mgdL_preIQ <dbl>, HCC_prev <fct>, SignesIndirectes_HTP <fct>,
#   prediciones <dbl>, standarized_weights <dbl>
…
 [1]   5  17  51  67  83  86 118 121 129 135 137 162 167 168 177 190 195 197 199
[20] 205 206 207 212 213 214 215 216 217 221 222 225 229 232 233 238 246 247 250
[39] 252 255 257 259 260 262 263 268 270 271 273 275 277 280 281 285 290 293 296
[58] 297 298 306 308 313 319 321 322 323 324 328 332 333 334 337 338 339 340 343
[77] 344 347 348 352 353 356 358 361 364 365 367

# Filtrado de pacientes incluidos por  encajar en  propensity score ---- 

Pacientes_incluidos_propensity <- datos_imputados_propensity %>% 
  filter(between(prediciones,0.1,0.9)) %>% 
  select(-c(prediciones,standarized_weights))

Pacientes_incluidos_propensity

# A tibble: 284 × 19
   identificador Grup_IQ edat_IQ sexe_home   IMC etiol_OH Enol_Actiu
           <int> <fct>     <dbl> <fct>     <dbl> <fct>    <fct>     
 1             1 No IQ        70 home       29.8 no       no        
 2             2 No IQ        79 dona       23.0 no       no        
 3             3 No IQ        64 home       25.3 no       no        
 4             4 No IQ        58 dona       20.3 si       si        
 5             6 No IQ        70 home       38.6 no       no        
 6             7 No IQ        74 dona       27.6 no       no        
 7             8 No IQ        74 dona       32.4 no       no        
 8             9 No IQ        74 dona       23.8 no       no        
 9            10 No IQ        82 dona       23.7 no       no        
10            11 No IQ        75 dona       29.3 no       no        
# ℹ 274 more rows
# ℹ 12 more variables: Charlson_Index <dbl>, plaquetes_preIQ <dbl>,
#   DIabetes <fct>, Pughpunts_basal <dbl>, colaterals_shunts <fct>,
#   MELD_basal <dbl>, Alb_gL_preIQ <dbl>, INR_preIQ <dbl>, BB_mgdL_preIQ <dbl>,
#   Creat_mgdL_preIQ <dbl>, HCC_prev <fct>, SignesIndirectes_HTP <fct>
…
